{
    "prepare_queue": {
        "installed": [],
        "uninstalled": []
    },
    "config_munge": {
        "files": {}
    },
    "installed_plugins": {
        "cordova-plugin-whitelist": {
            "PACKAGE_NAME": "com.ionicframework.starter"
        },
        "cordova-plugin-inappbrowser": {
            "PACKAGE_NAME": "com.ionicframework.starter"
        },
        "cordova-plugin-x-socialsharing": {
            "PACKAGE_NAME": "com.ionicframework.starter"
        },
        "de.appplant.cordova.plugin.local-notification": {
            "PACKAGE_NAME": "com.ionicframework.starter"
        },
        "org.pbernasconi.progressindicator": {
            "PACKAGE_NAME": "com.ionicframework.starter"
        },
        "cordova-plugin-x-toast": {
            "PACKAGE_NAME": "com.ionicframework.starter"
        },
        "cordova-plugin-crosswalk-webview": {
            "PACKAGE_NAME": "com.seatprapp.start"
        },
        "cordova-plugin-splashscreen": {
            "PACKAGE_NAME": "com.seatprapp.start"
        }
    },
    "dependent_plugins": {
        "cordova-plugin-device": {
            "PACKAGE_NAME": "com.ionicframework.starter"
        },
        "cordova-plugin-app-event": {
            "PACKAGE_NAME": "com.ionicframework.starter"
        }
    }
}